Data from Argentina's Population Census • arcenso
…
Interactive Exploration with ARcenso

Exploring the Repository

Before downloading data, you can check which tables are available for a specific year, topic, and geographic level using check_repository():

# Check available tables for 1970 related to "educacion"
check_repository(
  year = 1970,
  topic = "educacion"
)
#> # A tibble: 75 × 3
#>    id_cuadro            cod_geo titulo                                          
#>    <chr>                <chr>   <chr>                                           
#>  1 1970_00_educacion_01 00      Cuadro 7. Total del país. Población de 10 y más…
#>  2 1970_00_educacion_02 00      Cuadro 8. Total del país. Población de 5 y más …
#>  3 1970_00_educacion_03 00      Cuadro 9. Total del país. Población de 5 y más …
#>  4 1970_02_educacion_01 02      Cuadro 3. Capital Federal. Población de 10 y má…
#>  5 1970_02_educacion_02 02      Cuadro 4. Capital Federal. Población de 5 y más…
#>  6 1970_02_educacion_03 02      Cuadro 5. Capital Federal. Población de 5 y más…
#>  7 1970_06_educacion_01 06      Cuadro 3. Provincia de Buenos Aires. Población …
#>  8 1970_06_educacion_02 06      Cuadro 4. Provincia de Buenos Aires. Población …
#>  9 1970_06_educacion_03 06      Cuadro 5. Provincia de Buenos Aires. Población …
#> 10 1970_10_educacion_01 10      Cuadro 3. Provincia de Catamarca. Población de …
#> # ℹ 65 more rows
…
Once you have identified the table you need (either by ID or topic), use get_census() to retrieve the data.

Get specific table by ID (Recommended)

This is the most robust method for reproducible research.

# Download specific table (e.g., Structure of Population, National level)
census_data <- get_census(
  year = 1970,
  id = "1970_00_estructura_01"
)

census_data
#> $`1970_00_estructura_01`
#> # A tibble: 54 × 3
#>    grupo_de_edad sexo    poblacion
#>    <chr>         <chr>   <chr>    
#>  1 0-4           Total   2355300  
#>  2 0-4           Varones 1196950  
#>  3 0-4           Mujeres 1158350  
#>  4 5-9           Total   2297000  
#>  5 5-9           Varones 1163050  
#>  6 5-9           Mujeres 1133950  
#>  7 10-14         Total   2201150  
#>  8 10-14         Varones 1114300  
#>  9 10-14         Mujeres 1086850  
#> 10 15-19         Total   2098700  
#> # ℹ 44 more rows
…
