…
The output columns are dynamically adjusted based on the filters applied
to avoid redundant information.

## See also

[`get_census`](https://soyandrea.github.io/arcenso/reference/get_census.md)
to download the data found here.

## Examples

``` r
# Check all tables available for the 1970 census
check_repository(year = 1970)
#> # A tibble: 332 × 3
#>    id_cuadro             cod_geo titulo                                         
#>    <chr>                 <chr>   <chr>                                          
#>  1 1970_00_estructura_01 00      Cuadro 1. Total del país. Población total, por…
#>  2 1970_00_fecundidad_01 00      Cuadro 17. Total del país. Población femenina …
#>  3 1970_00_educacion_01  00      Cuadro 7. Total del país. Población de 10 y má…
#>  4 1970_00_educacion_02  00      Cuadro 8. Total del país. Población de 5 y más…
#>  5 1970_00_educacion_03  00      Cuadro 9. Total del país. Población de 5 y más…
#>  6 1970_00_conyugal_01   00      Cuadro 3. Total del país. Población de 12 y má…
#>  7 1970_00_actividad_01  00      Cuadro 11. Total del país. Población de 10 y m…
#>  8 1970_00_actividad_02  00      Cuadro 12. Total del país. Población económica…
#>  9 1970_00_actividad_03  00      Cuadro 14. Total del pais. Población económica…
#> 10 1970_00_actividad_04  00      Cuadro 15. Total del país. Población económica…
#> # ℹ 322 more rows
…
