Get census data tables — get_census • arcenso
…
    Value

    A list of data frames containing the requested census tables.

    Examples

# 1. Retrieve a specific table by its ID

# Note: 'year' is still required to locate the file in the correct folder
my_table <- get_census(year = 1970, id = "1970_00_estructura_01")

my_table
#> $`1970_00_estructura_01`
#> # A tibble: 54 × 3
#>    grupo_de_edad sexo    poblacion
#>    <chr>         <chr>   <chr>    
#>  1 0-4           Total   2355300  
#>  2 0-4           Varones 1196950  
#>  3 0-4           Mujeres 1158350  
#>  4 5-9           Total   2297000  
#>  5 5-9           Varones 1163050  
#>  6 5-9           Mujeres 1133950  
#>  7 10-14         Total   2201150  
#>  8 10-14         Varones 1114300  
#>  9 10-14         Mujeres 1086850  
#> 10 15-19         Total   2098700  
#> # ℹ 44 more rows
…
