Primeros pasos con ARcenso • arcenso
…
Si obtuviste un identificador específico (ej.
1970_00_educacion_01) desde la aplicación Shiny o mediante
check_repository(), puedes usarlo para descargar
únicamente esa tabla.

Esto es ideal para scripts reproducibles donde quieres asegurarte de
estar trabajando siempre con el mismo cuadro.

# Descarga usando el ID específico del cuadro
tabla_educacion <- get_census(id = "1970_00_educacion_01")

# Inspeccionamos el resultado
tabla_educacion
#> $`1970_00_educacion_01`
#> # A tibble: 108 × 4
#>    sexo  grupo_de_edad alfabetismo poblacion
#>    <chr> <chr>         <chr>       <chr>    
#>  1 Total 10-14         Total       2201150  
#>  2 Total 10-14         Alfabetos   2100600  
#>  3 Total 10-14         Analfabetos 100550   
#>  4 Total 15-19         Total       2098700  
#>  5 Total 15-19         Alfabetos   2012900  
#>  6 Total 15-19         Analfabetos 85800    
#>  7 Total 20-24         Total       1950500  
#>  8 Total 20-24         Alfabetos   1867400  
#>  9 Total 20-24         Analfabetos 83100    
#> 10 Total 25-29         Total       1702700  
#> # ℹ 98 more rows
…
